{
  "notification": {
    "ticket_mail": "<secret>",
    "user_last_logged_in_days": 60,
    "contact_form_recipient": "<secret>"
  },
  "oidc": {
    "client_id": "<secret>",
    "client_secret": "<secret>",
    "config_url": "https://<secret>/auth/realms/example/.well-known/openid-configuration",
    "login_redirect_url": "/",
    "logout_redirect_url": "/"
  },
  "user": {
    "default_namespace": "ch",
    "uid": {
      "min": 1000000,
      "max": 1499999
    },
    "gid": {
      "min": 1000000,
      "max": 1499999
    }
  },
  "project": {
    "gid": {
      "min": 1500000,
      "max": 1999999
    }
  },
  "email": {
    "host": "",
    "port": 25,
    "use_tls": true,
    "user": "",
    "password": "",
    "from_address": "",
    "subject_prefix": "BioMed-IT Portal: "
  },
  "pgp": {
    "keyserver": "https://keyserver.dcc.sib.swiss",
    "signing_pgpkey_id": "881685B5EE0FCBD3"
  },
  "session": {
    "expire_at_browser_close": true,
    "expire_seconds": 86400
  },
  "logging": {
    "level": "DEBUG"
  }
}
